43.9908,143.21,27.9867
41.2555,120.264,32.015
42.6655,95.994,38.2366
46.7535,72.7469,50.1594
53.91,50.3185,41.4869
66.1528,31.0698,39.3813
81.4714,14.3979,36.3226
100.657,5.33855,27.7609
122.511,4.15901,22.9077
144.882,7.278,27.8023
164.236,20.2007,32.545
180.413,37.7172,32.5671
193.304,55.2201,41.34
202.207,77.309,48.849
208.521,99.519,45.1822
210.795,123.45,35.2944
211.968,147.947,32.3456
52.5472,165.223,20.5449
63.8265,171.44,12.9122
78.4225,172.262,8.12078
91.6031,169.302,5.41436
102.994,163.663,5.23316
138.571,164.425,4.72478
154.629,169.641,4.49943
169.758,172.816,7.74448
185.97,175.265,12.9063
198.08,166.432,19.3331
122.72,144.517,6.17404
122.557,128.291,4.04933
122.304,112.133,1.31215
122.016,95.7105,-0.717214
106.71,86.1239,10.6985
114.463,83.717,8.18215
122.412,82.1367,8.07818
130.94,83.4922,8.9354
138.412,85.9986,11.1056
67.4411,147.697,15.7175
77.6074,152.741,11.1725
90.2099,152.009,11.3354
100.904,143.692,13.076
89.7791,142.886,13.4469
76.6425,143.337,14.2462
143.912,143.173,12.497
155.863,151.618,10.77
169.369,152.938,9.85495
179.607,148.285,14.4092
170.725,142.804,12.8551
157.276,142.232,12.1883
87.4924,57.802,19.154
99.243,65.2669,12.4317
111.447,68.5162,9.50628
120.327,66.0548,8.83512
129.936,68.6083,9.12608
142.613,64.1526,12.7402
154.033,56.4225,18.0856
142.851,42.8806,15.7232
130.394,39.6745,13.7283
119.858,39.4625,13.746
109.536,40.2988,14.1884
97.098,44.3581,17.6138
92.0138,57.6166,18.5234
111.408,59.1596,11.4637
120.561,58.6169,10.3795
130.229,58.8182,11.0787
148.117,55.6013,17.1024
129.974,55.1872,12.6797
119.415,54.2113,12.447
110.212,55.5456,13.042
